Agents;Build-time;Gauss-time;GaussSparse-time;GaussSeidel-time;SparseMatrix-time
         3;0,04055400000000000000;0,05537600000000000000;0,01939120000000000000;0,04474820000000000000;0,11513360000000000000
         8;4,14946700000000000000;4,58156640000000000000;1,32053900000000000000;7,56030760000000000000;0,20985040000000000000
        13;11,62335400000000000000;8,63985900000000000000;10,34914800000000000000;6,60073760000000000000;0,09760700000000000000
        18;14,97481100000000000000;5,12674940000000000000;9,93559980000000000000;18,00510480000000000000;0,21404560000000000000
        23;42,68142600000000000000;15,09833420000000000000;5,53069540000000000000;47,64885280000000000000;0,23903020000000000000
        28;86,07975600000000000000;33,68302240000000000000;12,26176220000000000000;90,98500200000000000000;0,42343000000000000000
        33;141,53307500000000000000;81,98706420000000000000;21,54795320000000000000;178,63765840000000000000;0,89794800000000000000



Agents;Estimated-gauss-time;Estimated-gauss-sparse-time;Estimated-gauss-seidel-time;Estimated-sparse-matrix
         3;-0,72376054761915700000;1,17866559999996800000;9,45139331428550000000;0,00132508571428584240;
         8;6,86344698095281800000;2,87717841428571040000;-3,19367227142863900000;0,10550457142857152000;
        13;6,57651226666708060000;5,06271010000001400000;-0,15676541428568670000;0,20968405714285720000;
        18;6,14406147619056500000;7,73526065714287700000;18,56211388571435400000;0,31386354285714285000;
        23;13,29472077619023200000;10,89483008571430400000;52,96296562857148000000;0,41804302857142850000;
        28;35,75711633333307000000;14,54141838571429000000;103,04578981428571000000;0,52222251428571420000;
        33;81,25987431428598000000;18,67502555714284000000;168,81058644285702000000;0,62640199999999990000;
